
   _____            _                                   ____       _ _               
  / ____|          | |                                 |  _ \     | | |              
 | (___    ______  | |     __ _ ___  ___ _ __   _   _  | |_) | ___| | | ___ ______ _ 
  \___ \  |______| | |    / _` / __|/ _ | '__| | | | | |  _ < / _ | | |/ _ |_  / _` |
  ____) |          | |___| (_| \__ |  __| |    | |_| | | |_) |  __| | |  __|/ | (_| |
 |_____/           |______\__,_|___/\___|_|     \__, | |____/ \___|_|_|\___/___\__,_|
                                                 __/ |                               
                                                |___/                                
